digraph "Metadata::setDate"
{
  edge [fontname="Helvetica",fontsize="10",labelfontname="Helvetica",labelfontsize="10"];
  node [fontname="Helvetica",fontsize="10",shape=record];
  rankdir="LR";
  Node1 [label="Metadata::setDate",height=0.2,width=0.4,color="black", fillcolor="grey75", style="filled", fontcolor="black"];
  Node1 -> Node2 [dir="back",color="midnightblue",fontsize="10",style="solid",fontname="Helvetica"];
  Node2 [label="main",height=0.2,width=0.4,color="black", fillcolor="white", style="filled",URL="$main_8cpp.html#ae66f6b31b5ad750f1fe042a706a4e3d4"];
  Node1 -> Node3 [dir="back",color="midnightblue",fontsize="10",style="solid",fontname="Helvetica"];
  Node3 [label="operator\>\>",height=0.2,width=0.4,color="black", fillcolor="white", style="filled",URL="$metadata_8h.html#a244c53bd9760fd319f5b0640d60b3ae5"];
}
