digraph "main"
{
  edge [fontname="Helvetica",fontsize="10",labelfontname="Helvetica",labelfontsize="10"];
  node [fontname="Helvetica",fontsize="10",shape=record];
  rankdir="LR";
  Node1 [label="main",height=0.2,width=0.4,color="black", fillcolor="grey75", style="filled", fontcolor="black"];
  Node1 -> Node2 [color="midnightblue",fontsize="10",style="solid",fontname="Helvetica"];
  Node2 [label="Metadata::setDate",height=0.2,width=0.4,color="black", fillcolor="white", style="filled",URL="$class_metadata.html#ae8f6dc2dc9fe08041cf910c5c11057eb",tooltip="set date "];
  Node1 -> Node3 [color="midnightblue",fontsize="10",style="solid",fontname="Helvetica"];
  Node3 [label="Metadata::setTime",height=0.2,width=0.4,color="black", fillcolor="white", style="filled",URL="$class_metadata.html#aab6eb3977b8787a3a44e589f1eab21e7",tooltip="set time "];
  Node1 -> Node4 [color="midnightblue",fontsize="10",style="solid",fontname="Helvetica"];
  Node4 [label="Metadata::setWindSpeed",height=0.2,width=0.4,color="black", fillcolor="white", style="filled",URL="$class_metadata.html#ab47387de13382048dcec46bbab8841f1",tooltip="set wind speed "];
  Node1 -> Node5 [color="midnightblue",fontsize="10",style="solid",fontname="Helvetica"];
  Node5 [label="Metadata::setSolarRad",height=0.2,width=0.4,color="black", fillcolor="white", style="filled",URL="$class_metadata.html#ac797c959eb0e91a8b46d05db2365787b",tooltip="set solar rad "];
  Node1 -> Node6 [color="midnightblue",fontsize="10",style="solid",fontname="Helvetica"];
  Node6 [label="Vector::insertEnd",height=0.2,width=0.4,color="black", fillcolor="white", style="filled",URL="$class_vector.html#a2ee458e72ef4330d10a67b5e633c000f",tooltip="insert elements at the end of vector array "];
  Node1 -> Node7 [color="midnightblue",fontsize="10",style="solid",fontname="Helvetica"];
  Node7 [label="Vector::retrieveAt",height=0.2,width=0.4,color="black", fillcolor="white", style="filled",URL="$class_vector.html#abde138ba5f54f0cb30c2a74c4c2c5924",tooltip="retrieve elements of the array at specific index "];
  Node1 -> Node8 [color="midnightblue",fontsize="10",style="solid",fontname="Helvetica"];
  Node8 [label="Metadata::getDate",height=0.2,width=0.4,color="black", fillcolor="white", style="filled",URL="$class_metadata.html#aa525af0aa1994f0b7db37f30dcb80037",tooltip="function to get the date "];
  Node1 -> Node9 [color="midnightblue",fontsize="10",style="solid",fontname="Helvetica"];
  Node9 [label="Date::getYear",height=0.2,width=0.4,color="black", fillcolor="white", style="filled",URL="$class_date.html#acbe0df036d53e8ddcfa96523177bbd23",tooltip="get year "];
  Node1 -> Node10 [color="midnightblue",fontsize="10",style="solid",fontname="Helvetica"];
  Node10 [label="Date::getMonth",height=0.2,width=0.4,color="black", fillcolor="white", style="filled",URL="$class_date.html#a378143c24ab06d9dd38712fc515056dc",tooltip="get month "];
  Node1 -> Node11 [color="midnightblue",fontsize="10",style="solid",fontname="Helvetica"];
  Node11 [label="Metadata::getWindSpeed",height=0.2,width=0.4,color="black", fillcolor="white", style="filled",URL="$class_metadata.html#a49d3c0599aaee3db168582c0a3c93b09",tooltip="function to get the wind speed "];
  Node1 -> Node12 [color="midnightblue",fontsize="10",style="solid",fontname="Helvetica"];
  Node12 [label="Metadata::getSolarRad",height=0.2,width=0.4,color="black", fillcolor="white", style="filled",URL="$class_metadata.html#ad34657d5a7431e390c4328af86ae2478",tooltip="function to get the solar radiation "];
}
