digraph "metadata.h"
{
  edge [fontname="Helvetica",fontsize="10",labelfontname="Helvetica",labelfontsize="10"];
  node [fontname="Helvetica",fontsize="10",shape=record];
  Node1 [label="metadata.h",height=0.2,width=0.4,color="black", fillcolor="grey75", style="filled", fontcolor="black"];
  Node1 -> Node2 [color="midnightblue",fontsize="10",style="solid",fontname="Helvetica"];
  Node2 [label="iostream",height=0.2,width=0.4,color="grey75", fillcolor="white", style="filled"];
  Node1 -> Node3 [color="midnightblue",fontsize="10",style="solid",fontname="Helvetica"];
  Node3 [label="string",height=0.2,width=0.4,color="grey75", fillcolor="white", style="filled"];
  Node1 -> Node4 [color="midnightblue",fontsize="10",style="solid",fontname="Helvetica"];
  Node4 [label="date.h",height=0.2,width=0.4,color="black", fillcolor="white", style="filled",URL="$date_8h.html"];
  Node4 -> Node2 [color="midnightblue",fontsize="10",style="solid",fontname="Helvetica"];
  Node4 -> Node3 [color="midnightblue",fontsize="10",style="solid",fontname="Helvetica"];
  Node1 -> Node5 [color="midnightblue",fontsize="10",style="solid",fontname="Helvetica"];
  Node5 [label="time.h",height=0.2,width=0.4,color="black", fillcolor="white", style="filled",URL="$time_8h.html"];
  Node5 -> Node2 [color="midnightblue",fontsize="10",style="solid",fontname="Helvetica"];
  Node5 -> Node3 [color="midnightblue",fontsize="10",style="solid",fontname="Helvetica"];
}
